
              "src/assets/css/owl.carousel.css",
              "src/assets/css/flexslider.css"


              ,

              "src/assets/js/bootstrap-datepicker.js",
              "src/assets/js/custom-date-picker.js",

              "src/assets/js/jquery.magnific-popup.min.js",
              "src/assets/js/jquery-ui.min.js",
              "src/assets/js/jquery.colorpanel.js",
              "src/assets/js/jquery.flexslider.js",
              "src/assets/js/owl.carousel.min.js",
              "src/assets/js/slick.min.js",

              "src/assets/js/custom-flex.js",
              "src/assets/js/custom-gallery.js",
              "src/assets/js/custom-navigation.js",
              "src/assets/js/custom-owl.js",
              "src/assets/js/custom-price-slider.js",
              "src/assets/js/custom-slick.js",
              "src/assets/js/custom-video.js"